{
    "id": -6563182,
    "name": "Nouveau parcours",
    "description": "zaeazeaze",
    "activity": null,
    "keyword": null,
    "length_in_meter": 5779,
    "is_private": null,
    "is_tested_by_user": false,
    "difficulty": null,
    "source": "openrunner-web",
    "thumb": null,
    "start_lat": 45.45183,
    "start_lng": 4.3668700000000005,
    "end_lat": 45.422560000000004,
    "end_lng": 4.40449,
    "shape": {
        "stroke_color": "#707070",
        "stroke_opacity": 0.7,
        "stroke_width": 4,
        "routing_engine": "graphhopper",
        "routing_engine_mode": "bike",
        "line_waypoint": {
            "type": "Feature",
            "geometry": {
                "coordinates": [
                    [
                        4.366837,
                        45.451862
                    ],
                    [
                        4.399452,
                        45.4297
                    ],
                    [
                        4.404602,
                        45.422632
                    ]
                ],
                "type": "LineString"
            },
            "properties": {
                "type": "AAA"
            }
        },
        "line_shape": {
            "type": "Feature",
            "geometry": {
                "coordinates": [
                    [
                        4.36687,
                        45.45183
                    ],
                    [
                        4.36654,
                        45.45166
                    ],
                    [
                        4.36662,
                        45.44973
                    ],
                    [
                        4.36698,
                        45.44936
                    ],
                    [
                        4.36706,
                        45.44887
                    ],
                    [
                        4.36672,
                        45.44874
                    ],
                    [
                        4.36607,
                        45.44845
                    ],
                    [
                        4.36629,
                        45.44815
                    ],
                    [
                        4.3674,
                        45.44648
                    ],
                    [
                        4.36727,
                        45.44637
                    ],
                    [
                        4.36735,
                        45.44627
                    ],
                    [
                        4.36738,
                        45.44605
                    ],
                    [
                        4.36981,
                        45.44398
                    ],
                    [
                        4.3699,
                        45.44369
                    ],
                    [
                        4.36983,
                        45.44344
                    ],
                    [
                        4.36985,
                        45.44333
                    ],
                    [
                        4.36999,
                        45.44325
                    ],
                    [
                        4.37032,
                        45.4432
                    ],
                    [
                        4.37289,
                        45.44262
                    ],
                    [
                        4.3731,
                        45.44254
                    ],
                    [
                        4.37359,
                        45.44237
                    ],
                    [
                        4.3759,
                        45.44104
                    ],
                    [
                        4.37595,
                        45.44019
                    ],
                    [
                        4.37604,
                        45.44001
                    ],
                    [
                        4.3762,
                        45.43984
                    ],
                    [
                        4.37743,
                        45.4391
                    ],
                    [
                        4.37752,
                        45.439
                    ],
                    [
                        4.37775,
                        45.43891
                    ],
                    [
                        4.37783,
                        45.43886
                    ],
                    [
                        4.37844,
                        45.43851
                    ],
                    [
                        4.37843,
                        45.43843
                    ],
                    [
                        4.3784,
                        45.43803
                    ],
                    [
                        4.37844,
                        45.43795
                    ],
                    [
                        4.37859,
                        45.43783
                    ],
                    [
                        4.37874,
                        45.43733
                    ],
                    [
                        4.37884,
                        45.43722
                    ],
                    [
                        4.379,
                        45.43721
                    ],
                    [
                        4.38115,
                        45.43752
                    ],
                    [
                        4.38162,
                        45.43755
                    ],
                    [
                        4.38178,
                        45.43745
                    ],
                    [
                        4.38217,
                        45.43695
                    ],
                    [
                        4.38238,
                        45.43665
                    ],
                    [
                        4.3826,
                        45.43639
                    ],
                    [
                        4.38298,
                        45.4361
                    ],
                    [
                        4.38309,
                        45.43599
                    ],
                    [
                        4.38316,
                        45.43587
                    ],
                    [
                        4.38359,
                        45.43592
                    ],
                    [
                        4.38413,
                        45.43516
                    ],
                    [
                        4.38506,
                        45.43524
                    ],
                    [
                        4.38561,
                        45.43508
                    ],
                    [
                        4.38627,
                        45.43457
                    ],
                    [
                        4.38731,
                        45.43263
                    ],
                    [
                        4.38747,
                        45.4318
                    ],
                    [
                        4.38758,
                        45.43155
                    ],
                    [
                        4.38759,
                        45.43138
                    ],
                    [
                        4.38762,
                        45.43131
                    ],
                    [
                        4.38772,
                        45.4312
                    ],
                    [
                        4.38775,
                        45.43131
                    ],
                    [
                        4.38787,
                        45.43135
                    ],
                    [
                        4.38794,
                        45.43134
                    ],
                    [
                        4.38861,
                        45.43142
                    ],
                    [
                        4.3889,
                        45.43069
                    ],
                    [
                        4.38897,
                        45.43059
                    ],
                    [
                        4.38914,
                        45.43044
                    ],
                    [
                        4.38935,
                        45.43035
                    ],
                    [
                        4.38944,
                        45.43033
                    ],
                    [
                        4.3897,
                        45.43034
                    ],
                    [
                        4.38977,
                        45.43037
                    ],
                    [
                        4.39076,
                        45.43049
                    ],
                    [
                        4.39089,
                        45.43047
                    ],
                    [
                        4.39136,
                        45.43053
                    ],
                    [
                        4.39258,
                        45.43065
                    ],
                    [
                        4.39572,
                        45.43098
                    ],
                    [
                        4.39623,
                        45.4309
                    ],
                    [
                        4.39693,
                        45.43068
                    ],
                    [
                        4.3971,
                        45.43065
                    ],
                    [
                        4.39862,
                        45.4298
                    ],
                    [
                        4.39995,
                        45.42904
                    ],
                    [
                        4.39945,
                        45.42829
                    ],
                    [
                        4.39918,
                        45.4284
                    ],
                    [
                        4.39889,
                        45.42811
                    ],
                    [
                        4.39842,
                        45.4275
                    ],
                    [
                        4.40087,
                        45.42692
                    ],
                    [
                        4.40195,
                        45.42644
                    ],
                    [
                        4.40215,
                        45.42633
                    ],
                    [
                        4.40275,
                        45.42589
                    ],
                    [
                        4.40251,
                        45.42581
                    ],
                    [
                        4.40236,
                        45.42569
                    ],
                    [
                        4.40226,
                        45.42555
                    ],
                    [
                        4.40212,
                        45.4252
                    ],
                    [
                        4.40192,
                        45.42451
                    ],
                    [
                        4.40179,
                        45.42427
                    ],
                    [
                        4.40313,
                        45.42366
                    ],
                    [
                        4.40262,
                        45.42203
                    ],
                    [
                        4.40272,
                        45.42198
                    ],
                    [
                        4.40344,
                        45.42252
                    ],
                    [
                        4.40363,
                        45.42263
                    ],
                    [
                        4.40386,
                        45.42268
                    ],
                    [
                        4.40418,
                        45.42268
                    ],
                    [
                        4.40449,
                        45.42256
                    ]
                ],
                "type": "LineString"
            },
            "properties": {
                "type": "MMMMMMMMMMMMMMMMMMMMMMMMMMMMMMMMMMMMMMMMMMMMMMMMMMMMMMMMMMMMMMMMMMMMMMMMMMMMMMMMMMMMMMMMMMMMMMMMMMMM"
            }
        },
        "line_shape_reduced": {
            "type": "Feature",
            "geometry": {
                "coordinates": [
                    [
                        4.36687,
                        45.45183
                    ],
                    [
                        4.36654,
                        45.45166
                    ],
                    [
                        4.36662,
                        45.44973
                    ],
                    [
                        4.36698,
                        45.44936
                    ],
                    [
                        4.36706,
                        45.44887
                    ],
                    [
                        4.36672,
                        45.44874
                    ],
                    [
                        4.36607,
                        45.44845
                    ],
                    [
                        4.36629,
                        45.44815
                    ],
                    [
                        4.3674,
                        45.44648
                    ],
                    [
                        4.36727,
                        45.44637
                    ],
                    [
                        4.36735,
                        45.44627
                    ],
                    [
                        4.36738,
                        45.44605
                    ],
                    [
                        4.36981,
                        45.44398
                    ],
                    [
                        4.3699,
                        45.44369
                    ],
                    [
                        4.36983,
                        45.44344
                    ],
                    [
                        4.36985,
                        45.44333
                    ],
                    [
                        4.36999,
                        45.44325
                    ],
                    [
                        4.37032,
                        45.4432
                    ],
                    [
                        4.37289,
                        45.44262
                    ],
                    [
                        4.3731,
                        45.44254
                    ],
                    [
                        4.37359,
                        45.44237
                    ],
                    [
                        4.3759,
                        45.44104
                    ],
                    [
                        4.37595,
                        45.44019
                    ],
                    [
                        4.37604,
                        45.44001
                    ],
                    [
                        4.3762,
                        45.43984
                    ],
                    [
                        4.37743,
                        45.4391
                    ],
                    [
                        4.37752,
                        45.439
                    ],
                    [
                        4.37775,
                        45.43891
                    ],
                    [
                        4.37783,
                        45.43886
                    ],
                    [
                        4.37844,
                        45.43851
                    ],
                    [
                        4.37843,
                        45.43843
                    ],
                    [
                        4.3784,
                        45.43803
                    ],
                    [
                        4.37844,
                        45.43795
                    ],
                    [
                        4.37859,
                        45.43783
                    ],
                    [
                        4.37874,
                        45.43733
                    ],
                    [
                        4.37884,
                        45.43722
                    ],
                    [
                        4.379,
                        45.43721
                    ],
                    [
                        4.38115,
                        45.43752
                    ],
                    [
                        4.38162,
                        45.43755
                    ],
                    [
                        4.38178,
                        45.43745
                    ],
                    [
                        4.38217,
                        45.43695
                    ],
                    [
                        4.38238,
                        45.43665
                    ],
                    [
                        4.3826,
                        45.43639
                    ],
                    [
                        4.38298,
                        45.4361
                    ],
                    [
                        4.38309,
                        45.43599
                    ],
                    [
                        4.38316,
                        45.43587
                    ],
                    [
                        4.38359,
                        45.43592
                    ],
                    [
                        4.38413,
                        45.43516
                    ],
                    [
                        4.38506,
                        45.43524
                    ],
                    [
                        4.38561,
                        45.43508
                    ],
                    [
                        4.38627,
                        45.43457
                    ],
                    [
                        4.38731,
                        45.43263
                    ],
                    [
                        4.38747,
                        45.4318
                    ],
                    [
                        4.38758,
                        45.43155
                    ],
                    [
                        4.38759,
                        45.43138
                    ],
                    [
                        4.38762,
                        45.43131
                    ],
                    [
                        4.38772,
                        45.4312
                    ],
                    [
                        4.38775,
                        45.43131
                    ],
                    [
                        4.38787,
                        45.43135
                    ],
                    [
                        4.38794,
                        45.43134
                    ],
                    [
                        4.38861,
                        45.43142
                    ],
                    [
                        4.3889,
                        45.43069
                    ],
                    [
                        4.38897,
                        45.43059
                    ],
                    [
                        4.38914,
                        45.43044
                    ],
                    [
                        4.38935,
                        45.43035
                    ],
                    [
                        4.38944,
                        45.43033
                    ],
                    [
                        4.3897,
                        45.43034
                    ],
                    [
                        4.38977,
                        45.43037
                    ],
                    [
                        4.39076,
                        45.43049
                    ],
                    [
                        4.39089,
                        45.43047
                    ],
                    [
                        4.39136,
                        45.43053
                    ],
                    [
                        4.39258,
                        45.43065
                    ],
                    [
                        4.39572,
                        45.43098
                    ],
                    [
                        4.39623,
                        45.4309
                    ],
                    [
                        4.39693,
                        45.43068
                    ],
                    [
                        4.3971,
                        45.43065
                    ],
                    [
                        4.39862,
                        45.4298
                    ],
                    [
                        4.39995,
                        45.42904
                    ],
                    [
                        4.39945,
                        45.42829
                    ],
                    [
                        4.39918,
                        45.4284
                    ],
                    [
                        4.39889,
                        45.42811
                    ],
                    [
                        4.39842,
                        45.4275
                    ],
                    [
                        4.40087,
                        45.42692
                    ],
                    [
                        4.40195,
                        45.42644
                    ],
                    [
                        4.40215,
                        45.42633
                    ],
                    [
                        4.40275,
                        45.42589
                    ],
                    [
                        4.40251,
                        45.42581
                    ],
                    [
                        4.40236,
                        45.42569
                    ],
                    [
                        4.40226,
                        45.42555
                    ],
                    [
                        4.40212,
                        45.4252
                    ],
                    [
                        4.40192,
                        45.42451
                    ],
                    [
                        4.40179,
                        45.42427
                    ],
                    [
                        4.40313,
                        45.42366
                    ],
                    [
                        4.40262,
                        45.42203
                    ],
                    [
                        4.40272,
                        45.42198
                    ],
                    [
                        4.40344,
                        45.42252
                    ],
                    [
                        4.40363,
                        45.42263
                    ],
                    [
                        4.40386,
                        45.42268
                    ],
                    [
                        4.40418,
                        45.42268
                    ],
                    [
                        4.40449,
                        45.42256
                    ]
                ],
                "type": "LineString"
            },
            "properties": {
                "type": "MMMMMMMMMMMMMMMMMMMMMMMMMMMMMMMMMMMMMMMMMMMMMMMMMMMMMMMMMMMMMMMMMMMMMMMMMMMMMMMMMMMMMMMMMMMMMMMMMMMM"
            }
        }
    },
    "pois": [
        {
            "type": "Feature",
            "properties": {
                "bgColor": "#ffffff",
                "color": "#26323d",
                "content": "",
                "icon": {
                    "id": "1",
                    "i18n": "Signaleur",
                    "type": "default",
                    "html_code": "&#x41",
                    "classes": ""
                },
                "title": "Signaleur",
                "tooltip": {
                    "direction": "top",
                    "permanent": false,
                    "show": true
                },
                "type": "default",
                "offsetX": 0,
                "offsetY": 0,
                "stickedDistanceInMeter": -1,
                "showOnPrint": true,
                "showOnElevation": false,
                "visibility": "public",
                "cumulatedLocation": false,
                "showOnPrintElevation": false,
                "showOnPrintMap": false,
                "showTextOnPrintElevation": false
            },
            "geometry": {
                "type": "Point",
                "coordinates": [
                    4.403572,
                    45.4195
                ]
            }
        },
        {
            "type": "Feature",
            "properties": {
                "bgColor": "#ffffff",
                "color": "#26323d",
                "content": "",
                "icon": {
                    "id": "2",
                    "i18n": "Secours",
                    "type": "default",
                    "html_code": "&#x43",
                    "classes": ""
                },
                "title": "Secours",
                "tooltip": {
                    "direction": "top",
                    "permanent": false,
                    "show": true
                },
                "type": "default",
                "offsetX": 0,
                "offsetY": 0,
                "stickedDistanceInMeter": -1,
                "showOnPrint": true,
                "showOnElevation": false,
                "visibility": "public",
                "cumulatedLocation": false,
                "showOnPrintElevation": false,
                "showOnPrintMap": false,
                "showTextOnPrintElevation": false
            },
            "geometry": {
                "type": "Point",
                "coordinates": [
                    4.382286,
                    45.411547
                ]
            }
        },
        {
            "type": "Feature",
            "properties": {
                "bgColor": "#ffffff",
                "color": "#26323d",
                "content": "",
                "icon": {
                    "id": "1",
                    "i18n": "Signaleur",
                    "type": "default",
                    "html_code": "&#x41",
                    "classes": ""
                },
                "title": "Signaleur",
                "tooltip": {
                    "direction": "top",
                    "permanent": false,
                    "show": true
                },
                "type": "default",
                "offsetX": 0,
                "offsetY": 0,
                "stickedDistanceInMeter": -1,
                "showOnPrint": true,
                "showOnElevation": false,
                "visibility": "public",
                "cumulatedLocation": false,
                "showOnPrintElevation": false,
                "showOnPrintMap": false,
                "showTextOnPrintElevation": false
            },
            "geometry": {
                "type": "Point",
                "coordinates": [
                    4.426575,
                    45.408413
                ]
            }
        }
    ],
    "zone": [
        {
            "type": "Feature",
            "properties": {
                "visibility": "public",
                "stroke": true,
                "color": "#da3c78",
                "weight": 4,
                "opacity": 0.5,
                "fill": true,
                "fillColor": null,
                "fillOpacity": 0.2,
                "clickable": true,
                "interactive": true,
                "tooltip": {
                    "direction": "center",
                    "enable": false,
                    "permanent": true,
                    "displayArea": false
                },
                "_dashArray": null,
                "smoothFactor": 1,
                "noClip": false,
                "lineCap": "round",
                "lineJoin": "round",
                "dashArray": null,
                "dashOffset": null,
                "fillRule": "evenodd",
                "bubblingMouseEvents": true,
                "pane": "overlayPane",
                "attribution": null
            },
            "geometry": {
                "type": "Polygon",
                "coordinates": [
                    [
                        [
                            4.331474,
                            45.435643
                        ],
                        [
                            4.35379,
                            45.412752
                        ],
                        [
                            4.312592,
                            45.406726
                        ],
                        [
                            4.331474,
                            45.435643
                        ]
                    ]
                ]
            }
        }
    ],
    "elevation": {
        "ascent": 103,
        "descent": 86,
        "full_encoded": "yc@?ADDDDFDJFFFF??DDHHH?CCCACIKMCBJHFB?@CACEMMED@EIACKOKGC?U",
        "min": 528,
        "max": 606,
        "interval": 100,
        "passes": []
    },
    "osm_details": {
        "mtb_scale": [],
        "road_class": {
            "or_road": {
                "total": 5780,
                "min": 24,
                "max": 1886,
                "elements": [
                    [
                        0,
                        6,
                        0,
                        442
                    ],
                    [
                        6,
                        9,
                        442,
                        700
                    ],
                    [
                        9,
                        12,
                        700,
                        1036
                    ],
                    [
                        12,
                        15,
                        1036,
                        1110
                    ],
                    [
                        15,
                        19,
                        1110,
                        1380
                    ],
                    [
                        19,
                        27,
                        1380,
                        1954
                    ],
                    [
                        27,
                        35,
                        1954,
                        2176
                    ],
                    [
                        35,
                        72,
                        2176,
                        4062
                    ],
                    [
                        72,
                        77,
                        4062,
                        4462
                    ],
                    [
                        77,
                        78,
                        4462,
                        4554
                    ],
                    [
                        78,
                        79,
                        4554,
                        4578
                    ],
                    [
                        79,
                        99,
                        4578,
                        5780
                    ]
                ]
            }
        },
        "road_environment": [],
        "sac_scale": []
    },
    "discipline": null
}
