@startuml

Title Diagramme de classe user et services de la v6

class Legende{
 - = suppression
 + = ajout
 * = garder existant
 ~ = à modifier
}

class User{
    status : SmallIntegerField / choices
    last_name : CharField
    first_name : CharField
    last_visit : DateTimeField
    last_manif : PositiveIntegerField
    last_change_password : DateTimeField
    recap : BooleanField
    openrunner_option : JSONField
    organisation : ForeignKey
    ==Méthodes==
    * save()
    ~ get_instance() (raccourci vers l'instance dite principale de son service)
    * get_departement() (raccourci sur le service)
    - get_organisation()
    - is_agent_avis()(supprimé)
    - is_agent_preavis()(supprimé)
    * has_group()
    * is_new()
    - get_friendly_role_names()
    * get_full_name()
    * get_full_name_and_username()
    * get_link_to_admin()
    - set_instance()(supprimé)
}

note right of User
    Voir si "status" est encore utile ?
    L'utilisateur n'a plus d'instance, ni de géographie.
    On prendra désormais le service pour base des droits d'acces et géographie de l'utilisateur
end note

class Organisation{
    Classe générique du service d'un utilisateurs
    --
    precision_nom_s : CharField
    adresse_s : CharField
    telephone_s : CharField
    email_s : EmailField
    site_web_s : CharField
    instance_fk : ForeignKey
    notification_email_json : JSONField
    ==Géographie==
    national_b : BooleanField
    region_m2m : M2M
    departement_m2m : M2M
    arrondissement_m2m : M2M
    commune_m2m : M2M
   ==Méthodes==
   + save() : l'instance sera calculé en fonction de la géographie default sera master (appelé dans le save)
   + is_structure_organisatrice()
   + is_service_consulte()
   + is_service_instructeur()
   + is_mairie()
   + is_federation()
   + get_users_qs() : avoir la liste des utilisateurs
   + get_users_list() : avoir un tableau de la liste des utilisateurs
   + get_manifs_ecriture() : recuperer la liste des manifs que le service peut écrire ou instruire
   + get_manifs_lecture() : recuperer la liste des manifs que le service peut consulter
   + get_niveau_geographique_str() : avoir le niveau du service (nationale, regionale ect)
}
note bottom of Organisation
    La géographie permettra de calculer la porté du service.
    On prendra toujours l'objet le plus haut en ocultant les plus bas.
    En gros si national est coché on ne prendra pas en compte le reste.
    Une limitation étant qu'on ne peut pas avoir un service limité par commune d'un coté et par departement en même temps.
    Attention une des géographie doit être selectionné obligatoirement.
    Le service par default pourra être la commune pour les organisateurs
    On supprime l'accès par arrondissement en lecture seul dans les instance.acces_arrondissement pour tout simplifier car cette subitlité n'a plus d'intérêt
    Cette classe ne peut pas être abstraite car des liaisons sont requises (user) >> polymorphisme
end note
User "m " == "m" Organisation

class ServiceConsulte{
    Service qui sont consulté dans le cadre de l'instruction de la manifestation
    --
    service_parent_fk : selfFK
    type_service_fk : ForeignKey
    admin_service_famille_b : BooleanField
    admin_utilisateurs_subalternes_b : BooleanField
    porte_entree_avis_b : BooleanField
    autorise_rendre_avis_b : BooleanField (autorisé à rendre l'avis au service instructeur)
    autorise_rendre_preavis_a_service_avis_b : BooleanField (autorisé à rendre le préavis au service interne initiateur)
    autorise_acces_consult_organisateur_b : BooleanField
    autorise_mandater_avis_famille_b : BooleanField
    autorise_interroge_preavis_famille_b : BooleanField
    ==Méthodes==
    + get_all_children_list()
    + get_children_qs()
    + get_family_member_qs()
    + get_subalterne_qs()
    + get_interactions_entrantes()
    + get_interactions_sortantes()
    + get_interactions()

}
ServiceConsulte "1" == "m" ServiceConsulte
Organisation -> ServiceConsulte

note bottom of ServiceConsulte
Une interrogation crée un objet avis different (remplaçant du préavis).
Cet avis dit preavis ne peut être delegué.
La fonctionnalité de "notifier" disparait au profit de "octroyer un accès en lecture" ou bien l'adressage du préavis

end note

class ServiceConsulteInteraction{
    Les interactions disponibles entre deux services consulté dans le cadre de la demande d'avis et de préavis
    --
    service_entrant_fk : ForeignKey
    service_sortant_fk : ForeignKey
    type_lien_s : CharField
}
ServiceConsulte "m" == "1" ServiceConsulteInteraction

note bottom of ServiceConsulteInteraction
=Liste des interactions disponibles entre services consultés d'une même famille
- être interroger (préavis) par (= recevoir une demande de préavis de la part de), implique une réponse
- être mandater (avis) par (= gérer la demande d'avis instructeur à la place de), à sens unique
- adresser l'avis/preavis à (= chaine de validation), à sens unique
NB : la modification de l'organisation de la famille ne pourra être fait que si aucun avis en cours
end note

class Federation{
    Service consulté étant une fédération
    --
    discipline : ForeignKey
}
ServiceConsulte -> Federation

class ServiceInstructeur{
    Service consulté qui instruit une manifestation
    --
    + save() : Va remplir le champs set_service_instructeurs des instructions
}

ServiceConsulte -> ServiceInstructeur

class CategorieService{
    Categorie du type de service
    --
    nom_s : CharField
}

class TypeService{
    Type de service
    --
    nom_s : CharField
    abreviation_s : CharField
    categorie_fk: ForeignKey
}

note right of TypeService
La liste des types de service proposé lors de l'édition d'un service sera limité aux types de la même catégorie que le service lui-même
end note

TypeService "1" -- "m" CategorieService
ServiceConsulte "1" -- "m" TypeService

class StructureOrganisatrice{
    Organisation qui va créer des manifestations
    --
    type_organisation : CharField
}
Organisation -> StructureOrganisatrice

class Commune{
    ==Aucun Changement==
}
class Arrondissement{
    ==Aucun Changement==
}
class Departement{
    region : ForeignKey
}
class Region{
    nom : CharField
}
note top of Region
    Les regions seront créé en base ce qui n'est pas le cas à l'heure actuelle
end note

class Avis{
    etat = FSMField
    date_demande = DateField
    date_reponse = DateField
    favorable = BooleanField
    prescriptions = TextField
    instruction = ForeignKey
    agent = ForeignKey
    service_consulte_origine_fk = ForeignKey
    service_consulte_fk = ForeignKey
    service_consulte_history_m2m = M2M
    service_demandeur_fk = ForeignKey

    avis_parent_fk = SelfFK
    avis_origine = SelfFK
    raison_redemande = CharField

    ==Méthodes==
    + mandaterAvis()
    ~ rendreAvis()
    + adresserAvis()
    - formaterAvis()
    - get_service()
}
Avis "1" -- "m" ServiceConsulte
note top of Avis
    Changement de la generic foreign key en ForeignKey sur ServiceConsulte.
    "avis_parent" sera renseigné dans le cas où c'est un "preavis".
    "avis_origine" est l'avis d'origine d'une re-demande.
end note

Arrondissement "m" -- "m" Organisation
Commune "m" -- "m" Organisation
Departement "m" -- "m" Organisation
Region "m" -- "m" Organisation
Arrondissement "m" -- "1" Commune
Departement "m" -- "1" Arrondissement
Region "m" -- "1" Departement

@enduml
